mult_16.vcd
$date
	Thu Sep 27 14:42:19 2018
$end
$version
	Icarus Verilog
$end
$timescale
	1s
$end
$scope module mult_16_tb $end
$var wire 32 ! c [31:0] $end
$var reg 16 " a [15:0] $end
$var reg 16 # b [15:0] $end
$scope module mult16 $end
$var wire 16 $ a [15:0] $end
$var wire 16 % b [15:0] $end
$var wire 32 & c [31:0] $end
$upscope $end
$upscope $end
$enddefinitions $end
#0
$dumpvars
bx &
bx %
bx $
bx #
bx "
bx !
$end
#10
b1111111111111111 #
b1111111111111111 %
b11111111111111100000000000000001 !
b11111111111111100000000000000001 &
b1111111111111111 "
b1111111111111111 $
#16
b1111111111111011 #
b1111111111111011 %
b1111111011111111 "
b1111111011111111 $
b11111110111110100000010100000101 !
b11111110111110100000010100000101 &
#32
b111111111111111 #
b111111111111111 %
b111111110111111 "
b111111110111111 $
b111111110111110000000001000001 !
b111111110111110000000001000001 &
#48
b111111111111011 #
b111111111111011 %
b111111010111111 "
b111111010111111 $
b111111010111010000011001000101 !
b111111010111010000011001000101 &
#64
b1111011111101111 #
b1111011111101111 %
b1101111111111111 "
b1101111111111111 $
b11011000111100000010100000010001 !
b11011000111100000010100000010001 &
#80
b1111011111101011 #
b1111011111101011 %
b1101111011111111 "
b1101111011111111 $
b11010111111101001011110100010101 !
b11010111111101001011110100010101 &
#96
b111011111101111 #
b111011111101111 %
b101111110111111 "
b101111110111111 $
b101100110110110010110001010001 !
b101100110110110010110001010001 &
#112
b111011111101011 #
b111011111101011 %
b101111010111111 "
b101111010111111 $
b101100011000011100001001010101 !
b101100011000011100001001010101 &
#128
b1111111111111111 #
b1111111111111111 %
b1111111111111111 "
b1111111111111111 $
b11111111111111100000000000000001 !
b11111111111111100000000000000001 &
#144
b1111111111111011 #
b1111111111111011 %
b1111111011111111 "
b1111111011111111 $
b11111110111110100000010100000101 !
b11111110111110100000010100000101 &
#160
b111111111111111 #
b111111111111111 %
b111111110111111 "
b111111110111111 $
b111111110111110000000001000001 !
b111111110111110000000001000001 &
#176
b111111111111011 #
b111111111111011 %
b111111010111111 "
b111111010111111 $
b111111010111010000011001000101 !
b111111010111010000011001000101 &
#192
b1111011111101111 #
b1111011111101111 %
b1101111111111111 "
b1101111111111111 $
b11011000111100000010100000010001 !
b11011000111100000010100000010001 &
#208
b1111011111101011 #
b1111011111101011 %
b1101111011111111 "
b1101111011111111 $
b11010111111101001011110100010101 !
b11010111111101001011110100010101 &
#224
b111011111101111 #
b111011111101111 %
b101111110111111 "
b101111110111111 $
b101100110110110010110001010001 !
b101100110110110010110001010001 &
#240
b111011111101011 #
b111011111101011 %
b101111010111111 "
b101111010111111 $
b101100011000011100001001010101 !
b101100011000011100001001010101 &
#256
b1111111111111111 #
b1111111111111111 %
b1111111111111111 "
b1111111111111111 $
b11111111111111100000000000000001 !
b11111111111111100000000000000001 &
#272
b1111111111111011 #
b1111111111111011 %
b1111111011111111 "
b1111111011111111 $
b11111110111110100000010100000101 !
b11111110111110100000010100000101 &
#288
b111111111111111 #
b111111111111111 %
b111111110111111 "
b111111110111111 $
b111111110111110000000001000001 !
b111111110111110000000001000001 &
#304
b111111111111011 #
b111111111111011 %
b111111010111111 "
b111111010111111 $
b111111010111010000011001000101 !
b111111010111010000011001000101 &
#320
b1111011111101111 #
b1111011111101111 %
b1101111111111111 "
b1101111111111111 $
b11011000111100000010100000010001 !
b11011000111100000010100000010001 &
#336
b1111011111101011 #
b1111011111101011 %
b1101111011111111 "
b1101111011111111 $
b11010111111101001011110100010101 !
b11010111111101001011110100010101 &
#352
b111011111101111 #
b111011111101111 %
b101111110111111 "
b101111110111111 $
b101100110110110010110001010001 !
b101100110110110010110001010001 &
#368
b111011111101011 #
b111011111101011 %
b101111010111111 "
b101111010111111 $
b101100011000011100001001010101 !
b101100011000011100001001010101 &
#384
b1111111111111111 #
b1111111111111111 %
b1111111111111111 "
b1111111111111111 $
b11111111111111100000000000000001 !
b11111111111111100000000000000001 &
#400
b1111111111111011 #
b1111111111111011 %
b1111111011111111 "
b1111111011111111 $
b11111110111110100000010100000101 !
b11111110111110100000010100000101 &
#416
b111111111111111 #
b111111111111111 %
b111111110111111 "
b111111110111111 $
b111111110111110000000001000001 !
b111111110111110000000001000001 &
#432
b111111111111011 #
b111111111111011 %
b111111010111111 "
b111111010111111 $
b111111010111010000011001000101 !
b111111010111010000011001000101 &
#448
b1111011111101111 #
b1111011111101111 %
b1101111111111111 "
b1101111111111111 $
b11011000111100000010100000010001 !
b11011000111100000010100000010001 &
#464
b1111011111101011 #
b1111011111101011 %
b1101111011111111 "
b1101111011111111 $
b11010111111101001011110100010101 !
b11010111111101001011110100010101 &
#480
b111011111101111 #
b111011111101111 %
b101111110111111 "
b101111110111111 $
b101100110110110010110001010001 !
b101100110110110010110001010001 &
#496
b111011111101011 #
b111011111101011 %
b101111010111111 "
b101111010111111 $
b101100011000011100001001010101 !
b101100011000011100001001010101 &
#512
b1111111111111111 #
b1111111111111111 %
b1111111111111111 "
b1111111111111111 $
b11111111111111100000000000000001 !
b11111111111111100000000000000001 &
#528
b1111111111111011 #
b1111111111111011 %
b1111111011111111 "
b1111111011111111 $
b11111110111110100000010100000101 !
b11111110111110100000010100000101 &
#544
b111111111111111 #
b111111111111111 %
b111111110111111 "
b111111110111111 $
b111111110111110000000001000001 !
b111111110111110000000001000001 &
#560
b111111111111011 #
b111111111111011 %
b111111010111111 "
b111111010111111 $
b111111010111010000011001000101 !
b111111010111010000011001000101 &
#576
b1111011111101111 #
b1111011111101111 %
b1101111111111111 "
b1101111111111111 $
b11011000111100000010100000010001 !
b11011000111100000010100000010001 &
#592
b1111011111101011 #
b1111011111101011 %
b1101111011111111 "
b1101111011111111 $
b11010111111101001011110100010101 !
b11010111111101001011110100010101 &
#608
b111011111101111 #
b111011111101111 %
b101111110111111 "
b101111110111111 $
b101100110110110010110001010001 !
b101100110110110010110001010001 &
#624
b111011111101011 #
b111011111101011 %
b101111010111111 "
b101111010111111 $
b101100011000011100001001010101 !
b101100011000011100001001010101 &
#640
b1111111111111111 #
b1111111111111111 %
b1111111111111111 "
b1111111111111111 $
b11111111111111100000000000000001 !
b11111111111111100000000000000001 &
#656
b1111111111111011 #
b1111111111111011 %
b1111111011111111 "
b1111111011111111 $
b11111110111110100000010100000101 !
b11111110111110100000010100000101 &
#672
b111111111111111 #
b111111111111111 %
b111111110111111 "
b111111110111111 $
b111111110111110000000001000001 !
b111111110111110000000001000001 &
#688
b111111111111011 #
b111111111111011 %
b111111010111111 "
b111111010111111 $
b111111010111010000011001000101 !
b111111010111010000011001000101 &
#704
b1111011111101111 #
b1111011111101111 %
b1101111111111111 "
b1101111111111111 $
b11011000111100000010100000010001 !
b11011000111100000010100000010001 &
#720
b1111011111101011 #
b1111011111101011 %
b1101111011111111 "
b1101111011111111 $
b11010111111101001011110100010101 !
b11010111111101001011110100010101 &
#736
b111011111101111 #
b111011111101111 %
b101111110111111 "
b101111110111111 $
b101100110110110010110001010001 !
b101100110110110010110001010001 &
#752
b111011111101011 #
b111011111101011 %
b101111010111111 "
b101111010111111 $
b101100011000011100001001010101 !
b101100011000011100001001010101 &
#768
b1111111111111111 #
b1111111111111111 %
b1111111111111111 "
b1111111111111111 $
b11111111111111100000000000000001 !
b11111111111111100000000000000001 &
#784
b1111111111111011 #
b1111111111111011 %
b1111111011111111 "
b1111111011111111 $
b11111110111110100000010100000101 !
b11111110111110100000010100000101 &
#800
b111111111111111 #
b111111111111111 %
b111111110111111 "
b111111110111111 $
b111111110111110000000001000001 !
b111111110111110000000001000001 &
#816
b111111111111011 #
b111111111111011 %
b111111010111111 "
b111111010111111 $
b111111010111010000011001000101 !
b111111010111010000011001000101 &
#832
b1111011111101111 #
b1111011111101111 %
b1101111111111111 "
b1101111111111111 $
b11011000111100000010100000010001 !
b11011000111100000010100000010001 &
#848
b1111011111101011 #
b1111011111101011 %
b1101111011111111 "
b1101111011111111 $
b11010111111101001011110100010101 !
b11010111111101001011110100010101 &
#864
b111011111101111 #
b111011111101111 %
b101111110111111 "
b101111110111111 $
b101100110110110010110001010001 !
b101100110110110010110001010001 &
#880
b111011111101011 #
b111011111101011 %
b101111010111111 "
b101111010111111 $
b101100011000011100001001010101 !
b101100011000011100001001010101 &
#896
b1111111111111111 #
b1111111111111111 %
b1111111111111111 "
b1111111111111111 $
b11111111111111100000000000000001 !
b11111111111111100000000000000001 &
#912
b1111111111111011 #
b1111111111111011 %
b1111111011111111 "
b1111111011111111 $
b11111110111110100000010100000101 !
b11111110111110100000010100000101 &
#928
b111111111111111 #
b111111111111111 %
b111111110111111 "
b111111110111111 $
b111111110111110000000001000001 !
b111111110111110000000001000001 &
#944
b111111111111011 #
b111111111111011 %
b111111010111111 "
b111111010111111 $
b111111010111010000011001000101 !
b111111010111010000011001000101 &
#960
b1111011111101111 #
b1111011111101111 %
b1101111111111111 "
b1101111111111111 $
b11011000111100000010100000010001 !
b11011000111100000010100000010001 &
#976
b1111011111101011 #
b1111011111101011 %
b1101111011111111 "
b1101111011111111 $
b11010111111101001011110100010101 !
b11010111111101001011110100010101 &
#992
b111011111101111 #
b111011111101111 %
b101111110111111 "
b101111110111111 $
b101100110110110010110001010001 !
b101100110110110010110001010001 &
#1008
b111011111101011 #
b111011111101011 %
b101111010111111 "
b101111010111111 $
b101100011000011100001001010101 !
b101100011000011100001001010101 &
#1024
b1111111111111111 #
b1111111111111111 %
b1111111111111111 "
b1111111111111111 $
b11111111111111100000000000000001 !
b11111111111111100000000000000001 &
