sub_32.vcd
$date
	Thu Sep 27 14:33:01 2018
$end
$version
	Icarus Verilog
$end
$timescale
	1s
$end
$scope module sub_32_tb $end
$var wire 32 ! c [31:0] $end
$var reg 32 " a [31:0] $end
$var reg 32 # b [31:0] $end
$scope module sub32 $end
$var wire 32 $ a [31:0] $end
$var wire 32 % b [31:0] $end
$var wire 1 & en $end
$var reg 32 ' c [31:0] $end
$upscope $end
$upscope $end
$enddefinitions $end
#0
$dumpvars
bx '
1&
bx %
bx $
bx #
bx "
bx !
$end
#4
bx #
#8
bx #
#10
b111111110010011000111000000 '
b111111110010011000111000000 !
b1000000000010011001000000000 #
b1000000000010011001000000000 %
b10000000000001000000 "
b10000000000001000000 $
#12
b111111110010011001000000000 '
b111111110010011001000000000 !
b1000000000010011001001000000 #
b1000000000010011001001000000 %
#16
b111111110010011000011000000 '
b111111110010011000011000000 !
b1000000000010011001000000000 #
b1000000000010011001000000000 %
b10000000000101000000 "
b10000000000101000000 $
#20
b111111110010011000100000000 '
b111111110010011000100000000 !
b1000000000010011001001000000 #
b1000000000010011001001000000 %
#24
b111111110010011000011000000 '
b111111110010011000011000000 !
b1000000000010011001000000000 #
b1000000000010011001000000000 %
#28
b111111110010011000100000000 '
b111111110010011000100000000 !
b1000000000010011001001000000 #
b1000000000010011001001000000 %
#32
b111111110001011000111000000 '
b111111110001011000111000000 !
b1000000000010011001000000000 #
b1000000000010011001000000000 %
b10001000000001000000 "
b10001000000001000000 $
#36
b111111110001011001000000000 '
b111111110001011001000000000 !
b1000000000010011001001000000 #
b1000000000010011001001000000 %
#40
b111111110001011000111000000 '
b111111110001011000111000000 !
b1000000000010011001000000000 #
b1000000000010011001000000000 %
#44
b111111110001011001000000000 '
b111111110001011001000000000 !
b1000000000010011001001000000 #
b1000000000010011001001000000 %
#48
b111111110001011000011000000 '
b111111110001011000011000000 !
b1000000000010011001000000000 #
b1000000000010011001000000000 %
b10001000000101000000 "
b10001000000101000000 $
#52
b111111110001011000100000000 '
b111111110001011000100000000 !
b1000000000010011001001000000 #
b1000000000010011001001000000 %
#56
b111111110001011000011000000 '
b111111110001011000011000000 !
b1000000000010011001000000000 #
b1000000000010011001000000000 %
#60
b111111110001011000100000000 '
b111111110001011000100000000 !
b1000000000010011001001000000 #
b1000000000010011001001000000 %
#64
b111111110010011000111000000 '
b111111110010011000111000000 !
b10001000000000010011001000000000 #
b10001000000000010011001000000000 %
b10000000000010000000000001000000 "
b10000000000010000000000001000000 $
#68
b111111110010011001000000000 '
b111111110010011001000000000 !
b10001000000000010011001001000000 #
b10001000000000010011001001000000 %
#72
b111111110010011000111000000 '
b111111110010011000111000000 !
b10001000000000010011001000000000 #
b10001000000000010011001000000000 %
#76
b111111110010011001000000000 '
b111111110010011001000000000 !
b10001000000000010011001001000000 #
b10001000000000010011001001000000 %
#80
b111111110010011000011000000 '
b111111110010011000011000000 !
b10001000000000010011001000000000 #
b10001000000000010011001000000000 %
b10000000000010000000000101000000 "
b10000000000010000000000101000000 $
#84
b111111110010011000100000000 '
b111111110010011000100000000 !
b10001000000000010011001001000000 #
b10001000000000010011001001000000 %
#88
b111111110010011000011000000 '
b111111110010011000011000000 !
b10001000000000010011001000000000 #
b10001000000000010011001000000000 %
#92
b111111110010011000100000000 '
b111111110010011000100000000 !
b10001000000000010011001001000000 #
b10001000000000010011001001000000 %
#96
b111111110001011000111000000 '
b111111110001011000111000000 !
b10001000000000010011001000000000 #
b10001000000000010011001000000000 %
b10000000000010001000000001000000 "
b10000000000010001000000001000000 $
#100
b111111110001011001000000000 '
b111111110001011001000000000 !
b10001000000000010011001001000000 #
b10001000000000010011001001000000 %
#104
b111111110001011000111000000 '
b111111110001011000111000000 !
b10001000000000010011001000000000 #
b10001000000000010011001000000000 %
#108
b111111110001011001000000000 '
b111111110001011001000000000 !
b10001000000000010011001001000000 #
b10001000000000010011001001000000 %
#112
b111111110001011000011000000 '
b111111110001011000011000000 !
b10001000000000010011001000000000 #
b10001000000000010011001000000000 %
b10000000000010001000000101000000 "
b10000000000010001000000101000000 $
#116
b111111110001011000100000000 '
b111111110001011000100000000 !
b10001000000000010011001001000000 #
b10001000000000010011001001000000 %
#120
b111111110001011000011000000 '
b111111110001011000011000000 !
b10001000000000010011001000000000 #
b10001000000000010011001000000000 %
#124
b111111110001011000100000000 '
b111111110001011000100000000 !
b10001000000000010011001001000000 #
b10001000000000010011001001000000 %
#128
b111111110010011000111000000 '
b111111110010011000111000000 !
b1000000000010011001000000000 #
b1000000000010011001000000000 %
b10000000000001000000 "
b10000000000001000000 $
#132
b111111110010011001000000000 '
b111111110010011001000000000 !
b1000000000010011001001000000 #
b1000000000010011001001000000 %
#136
b111111110010011000111000000 '
b111111110010011000111000000 !
b1000000000010011001000000000 #
b1000000000010011001000000000 %
#140
b111111110010011001000000000 '
b111111110010011001000000000 !
b1000000000010011001001000000 #
b1000000000010011001001000000 %
#144
b111111110010011000011000000 '
b111111110010011000011000000 !
b1000000000010011001000000000 #
b1000000000010011001000000000 %
b10000000000101000000 "
b10000000000101000000 $
#148
b111111110010011000100000000 '
b111111110010011000100000000 !
b1000000000010011001001000000 #
b1000000000010011001001000000 %
#152
b111111110010011000011000000 '
b111111110010011000011000000 !
b1000000000010011001000000000 #
b1000000000010011001000000000 %
#156
b111111110010011000100000000 '
b111111110010011000100000000 !
b1000000000010011001001000000 #
b1000000000010011001001000000 %
#160
b111111110001011000111000000 '
b111111110001011000111000000 !
b1000000000010011001000000000 #
b1000000000010011001000000000 %
b10001000000001000000 "
b10001000000001000000 $
#164
b111111110001011001000000000 '
b111111110001011001000000000 !
b1000000000010011001001000000 #
b1000000000010011001001000000 %
#168
b111111110001011000111000000 '
b111111110001011000111000000 !
b1000000000010011001000000000 #
b1000000000010011001000000000 %
#172
b111111110001011001000000000 '
b111111110001011001000000000 !
b1000000000010011001001000000 #
b1000000000010011001001000000 %
#176
b111111110001011000011000000 '
b111111110001011000011000000 !
b1000000000010011001000000000 #
b1000000000010011001000000000 %
b10001000000101000000 "
b10001000000101000000 $
#180
b111111110001011000100000000 '
b111111110001011000100000000 !
b1000000000010011001001000000 #
b1000000000010011001001000000 %
#184
b111111110001011000011000000 '
b111111110001011000011000000 !
b1000000000010011001000000000 #
b1000000000010011001000000000 %
#188
b111111110001011000100000000 '
b111111110001011000100000000 !
b1000000000010011001001000000 #
b1000000000010011001001000000 %
#192
b111111110010011000111000000 '
b111111110010011000111000000 !
b10001000000000010011001000000000 #
b10001000000000010011001000000000 %
b10000000000010000000000001000000 "
b10000000000010000000000001000000 $
#196
b111111110010011001000000000 '
b111111110010011001000000000 !
b10001000000000010011001001000000 #
b10001000000000010011001001000000 %
#200
b111111110010011000111000000 '
b111111110010011000111000000 !
b10001000000000010011001000000000 #
b10001000000000010011001000000000 %
#204
b111111110010011001000000000 '
b111111110010011001000000000 !
b10001000000000010011001001000000 #
b10001000000000010011001001000000 %
#208
b111111110010011000011000000 '
b111111110010011000011000000 !
b10001000000000010011001000000000 #
b10001000000000010011001000000000 %
b10000000000010000000000101000000 "
b10000000000010000000000101000000 $
#212
b111111110010011000100000000 '
b111111110010011000100000000 !
b10001000000000010011001001000000 #
b10001000000000010011001001000000 %
#216
b111111110010011000011000000 '
b111111110010011000011000000 !
b10001000000000010011001000000000 #
b10001000000000010011001000000000 %
#220
b111111110010011000100000000 '
b111111110010011000100000000 !
b10001000000000010011001001000000 #
b10001000000000010011001001000000 %
#224
b111111110001011000111000000 '
b111111110001011000111000000 !
b10001000000000010011001000000000 #
b10001000000000010011001000000000 %
b10000000000010001000000001000000 "
b10000000000010001000000001000000 $
#228
b111111110001011001000000000 '
b111111110001011001000000000 !
b10001000000000010011001001000000 #
b10001000000000010011001001000000 %
#232
b111111110001011000111000000 '
b111111110001011000111000000 !
b10001000000000010011001000000000 #
b10001000000000010011001000000000 %
#236
b111111110001011001000000000 '
b111111110001011001000000000 !
b10001000000000010011001001000000 #
b10001000000000010011001001000000 %
#240
b111111110001011000011000000 '
b111111110001011000011000000 !
b10001000000000010011001000000000 #
b10001000000000010011001000000000 %
b10000000000010001000000101000000 "
b10000000000010001000000101000000 $
#244
b111111110001011000100000000 '
b111111110001011000100000000 !
b10001000000000010011001001000000 #
b10001000000000010011001001000000 %
#248
b111111110001011000011000000 '
b111111110001011000011000000 !
b10001000000000010011001000000000 #
b10001000000000010011001000000000 %
#252
b111111110001011000100000000 '
b111111110001011000100000000 !
b10001000000000010011001001000000 #
b10001000000000010011001001000000 %
#256
b111111110010011000111000000 '
b111111110010011000111000000 !
b1000000000010011001000000000 #
b1000000000010011001000000000 %
b10000000000001000000 "
b10000000000001000000 $
#260
b111111110010011001000000000 '
b111111110010011001000000000 !
b1000000000010011001001000000 #
b1000000000010011001001000000 %
#264
b111111110010011000111000000 '
b111111110010011000111000000 !
b1000000000010011001000000000 #
b1000000000010011001000000000 %
#268
b111111110010011001000000000 '
b111111110010011001000000000 !
b1000000000010011001001000000 #
b1000000000010011001001000000 %
#272
b111111110010011000011000000 '
b111111110010011000011000000 !
b1000000000010011001000000000 #
b1000000000010011001000000000 %
b10000000000101000000 "
b10000000000101000000 $
#276
b111111110010011000100000000 '
b111111110010011000100000000 !
b1000000000010011001001000000 #
b1000000000010011001001000000 %
#280
b111111110010011000011000000 '
b111111110010011000011000000 !
b1000000000010011001000000000 #
b1000000000010011001000000000 %
#284
b111111110010011000100000000 '
b111111110010011000100000000 !
b1000000000010011001001000000 #
b1000000000010011001001000000 %
#288
b111111110001011000111000000 '
b111111110001011000111000000 !
b1000000000010011001000000000 #
b1000000000010011001000000000 %
b10001000000001000000 "
b10001000000001000000 $
#292
b111111110001011001000000000 '
b111111110001011001000000000 !
b1000000000010011001001000000 #
b1000000000010011001001000000 %
#296
b111111110001011000111000000 '
b111111110001011000111000000 !
b1000000000010011001000000000 #
b1000000000010011001000000000 %
#300
b111111110001011001000000000 '
b111111110001011001000000000 !
b1000000000010011001001000000 #
b1000000000010011001001000000 %
#304
b111111110001011000011000000 '
b111111110001011000011000000 !
b1000000000010011001000000000 #
b1000000000010011001000000000 %
b10001000000101000000 "
b10001000000101000000 $
#308
b111111110001011000100000000 '
b111111110001011000100000000 !
b1000000000010011001001000000 #
b1000000000010011001001000000 %
#312
b111111110001011000011000000 '
b111111110001011000011000000 !
b1000000000010011001000000000 #
b1000000000010011001000000000 %
#316
b111111110001011000100000000 '
b111111110001011000100000000 !
b1000000000010011001001000000 #
b1000000000010011001001000000 %
#320
b111111110010011000111000000 '
b111111110010011000111000000 !
b10001000000000010011001000000000 #
b10001000000000010011001000000000 %
b10000000000010000000000001000000 "
b10000000000010000000000001000000 $
#324
b111111110010011001000000000 '
b111111110010011001000000000 !
b10001000000000010011001001000000 #
b10001000000000010011001001000000 %
#328
b111111110010011000111000000 '
b111111110010011000111000000 !
b10001000000000010011001000000000 #
b10001000000000010011001000000000 %
#332
b111111110010011001000000000 '
b111111110010011001000000000 !
b10001000000000010011001001000000 #
b10001000000000010011001001000000 %
#336
b111111110010011000011000000 '
b111111110010011000011000000 !
b10001000000000010011001000000000 #
b10001000000000010011001000000000 %
b10000000000010000000000101000000 "
b10000000000010000000000101000000 $
#340
b111111110010011000100000000 '
b111111110010011000100000000 !
b10001000000000010011001001000000 #
b10001000000000010011001001000000 %
#344
b111111110010011000011000000 '
b111111110010011000011000000 !
b10001000000000010011001000000000 #
b10001000000000010011001000000000 %
#348
b111111110010011000100000000 '
b111111110010011000100000000 !
b10001000000000010011001001000000 #
b10001000000000010011001001000000 %
#352
b111111110001011000111000000 '
b111111110001011000111000000 !
b10001000000000010011001000000000 #
b10001000000000010011001000000000 %
b10000000000010001000000001000000 "
b10000000000010001000000001000000 $
#356
b111111110001011001000000000 '
b111111110001011001000000000 !
b10001000000000010011001001000000 #
b10001000000000010011001001000000 %
#360
b111111110001011000111000000 '
b111111110001011000111000000 !
b10001000000000010011001000000000 #
b10001000000000010011001000000000 %
#364
b111111110001011001000000000 '
b111111110001011001000000000 !
b10001000000000010011001001000000 #
b10001000000000010011001001000000 %
#368
b111111110001011000011000000 '
b111111110001011000011000000 !
b10001000000000010011001000000000 #
b10001000000000010011001000000000 %
b10000000000010001000000101000000 "
b10000000000010001000000101000000 $
#372
b111111110001011000100000000 '
b111111110001011000100000000 !
b10001000000000010011001001000000 #
b10001000000000010011001001000000 %
#376
b111111110001011000011000000 '
b111111110001011000011000000 !
b10001000000000010011001000000000 #
b10001000000000010011001000000000 %
#380
b111111110001011000100000000 '
b111111110001011000100000000 !
b10001000000000010011001001000000 #
b10001000000000010011001001000000 %
#384
b111111110010011000111000000 '
b111111110010011000111000000 !
b1000000000010011001000000000 #
b1000000000010011001000000000 %
b10000000000001000000 "
b10000000000001000000 $
#388
b111111110010011001000000000 '
b111111110010011001000000000 !
b1000000000010011001001000000 #
b1000000000010011001001000000 %
#392
b111111110010011000111000000 '
b111111110010011000111000000 !
b1000000000010011001000000000 #
b1000000000010011001000000000 %
#396
b111111110010011001000000000 '
b111111110010011001000000000 !
b1000000000010011001001000000 #
b1000000000010011001001000000 %
#400
b111111110010011000011000000 '
b111111110010011000011000000 !
b1000000000010011001000000000 #
b1000000000010011001000000000 %
b10000000000101000000 "
b10000000000101000000 $
#404
b111111110010011000100000000 '
b111111110010011000100000000 !
b1000000000010011001001000000 #
b1000000000010011001001000000 %
#408
b111111110010011000011000000 '
b111111110010011000011000000 !
b1000000000010011001000000000 #
b1000000000010011001000000000 %
#412
b111111110010011000100000000 '
b111111110010011000100000000 !
b1000000000010011001001000000 #
b1000000000010011001001000000 %
#416
b111111110001011000111000000 '
b111111110001011000111000000 !
b1000000000010011001000000000 #
b1000000000010011001000000000 %
b10001000000001000000 "
b10001000000001000000 $
#420
b111111110001011001000000000 '
b111111110001011001000000000 !
b1000000000010011001001000000 #
b1000000000010011001001000000 %
#424
b111111110001011000111000000 '
b111111110001011000111000000 !
b1000000000010011001000000000 #
b1000000000010011001000000000 %
#428
b111111110001011001000000000 '
b111111110001011001000000000 !
b1000000000010011001001000000 #
b1000000000010011001001000000 %
#432
b111111110001011000011000000 '
b111111110001011000011000000 !
b1000000000010011001000000000 #
b1000000000010011001000000000 %
b10001000000101000000 "
b10001000000101000000 $
#436
b111111110001011000100000000 '
b111111110001011000100000000 !
b1000000000010011001001000000 #
b1000000000010011001001000000 %
#440
b111111110001011000011000000 '
b111111110001011000011000000 !
b1000000000010011001000000000 #
b1000000000010011001000000000 %
#444
b111111110001011000100000000 '
b111111110001011000100000000 !
b1000000000010011001001000000 #
b1000000000010011001001000000 %
#448
b111111110010011000111000000 '
b111111110010011000111000000 !
b10001000000000010011001000000000 #
b10001000000000010011001000000000 %
b10000000000010000000000001000000 "
b10000000000010000000000001000000 $
#452
b111111110010011001000000000 '
b111111110010011001000000000 !
b10001000000000010011001001000000 #
b10001000000000010011001001000000 %
#456
b111111110010011000111000000 '
b111111110010011000111000000 !
b10001000000000010011001000000000 #
b10001000000000010011001000000000 %
#460
b111111110010011001000000000 '
b111111110010011001000000000 !
b10001000000000010011001001000000 #
b10001000000000010011001001000000 %
#464
b111111110010011000011000000 '
b111111110010011000011000000 !
b10001000000000010011001000000000 #
b10001000000000010011001000000000 %
b10000000000010000000000101000000 "
b10000000000010000000000101000000 $
#468
b111111110010011000100000000 '
b111111110010011000100000000 !
b10001000000000010011001001000000 #
b10001000000000010011001001000000 %
#472
b111111110010011000011000000 '
b111111110010011000011000000 !
b10001000000000010011001000000000 #
b10001000000000010011001000000000 %
#476
b111111110010011000100000000 '
b111111110010011000100000000 !
b10001000000000010011001001000000 #
b10001000000000010011001001000000 %
#480
b111111110001011000111000000 '
b111111110001011000111000000 !
b10001000000000010011001000000000 #
b10001000000000010011001000000000 %
b10000000000010001000000001000000 "
b10000000000010001000000001000000 $
#484
b111111110001011001000000000 '
b111111110001011001000000000 !
b10001000000000010011001001000000 #
b10001000000000010011001001000000 %
#488
b111111110001011000111000000 '
b111111110001011000111000000 !
b10001000000000010011001000000000 #
b10001000000000010011001000000000 %
#492
b111111110001011001000000000 '
b111111110001011001000000000 !
b10001000000000010011001001000000 #
b10001000000000010011001001000000 %
#496
b111111110001011000011000000 '
b111111110001011000011000000 !
b10001000000000010011001000000000 #
b10001000000000010011001000000000 %
b10000000000010001000000101000000 "
b10000000000010001000000101000000 $
#500
b111111110001011000100000000 '
b111111110001011000100000000 !
b10001000000000010011001001000000 #
b10001000000000010011001001000000 %
#504
b111111110001011000011000000 '
b111111110001011000011000000 !
b10001000000000010011001000000000 #
b10001000000000010011001000000000 %
#508
b111111110001011000100000000 '
b111111110001011000100000000 !
b10001000000000010011001001000000 #
b10001000000000010011001001000000 %
#512
b111111110010011000111000000 '
b111111110010011000111000000 !
b1000000000010011001000000000 #
b1000000000010011001000000000 %
b10000000000001000000 "
b10000000000001000000 $
#516
b111111110010011001000000000 '
b111111110010011001000000000 !
b1000000000010011001001000000 #
b1000000000010011001001000000 %
#520
b111111110010011000111000000 '
b111111110010011000111000000 !
b1000000000010011001000000000 #
b1000000000010011001000000000 %
#524
b111111110010011001000000000 '
b111111110010011001000000000 !
b1000000000010011001001000000 #
b1000000000010011001001000000 %
#528
b111111110010011000011000000 '
b111111110010011000011000000 !
b1000000000010011001000000000 #
b1000000000010011001000000000 %
b10000000000101000000 "
b10000000000101000000 $
#532
b111111110010011000100000000 '
b111111110010011000100000000 !
b1000000000010011001001000000 #
b1000000000010011001001000000 %
#536
b111111110010011000011000000 '
b111111110010011000011000000 !
b1000000000010011001000000000 #
b1000000000010011001000000000 %
#540
b111111110010011000100000000 '
b111111110010011000100000000 !
b1000000000010011001001000000 #
b1000000000010011001001000000 %
#544
b111111110001011000111000000 '
b111111110001011000111000000 !
b1000000000010011001000000000 #
b1000000000010011001000000000 %
b10001000000001000000 "
b10001000000001000000 $
#548
b111111110001011001000000000 '
b111111110001011001000000000 !
b1000000000010011001001000000 #
b1000000000010011001001000000 %
#552
b111111110001011000111000000 '
b111111110001011000111000000 !
b1000000000010011001000000000 #
b1000000000010011001000000000 %
#556
b111111110001011001000000000 '
b111111110001011001000000000 !
b1000000000010011001001000000 #
b1000000000010011001001000000 %
#560
b111111110001011000011000000 '
b111111110001011000011000000 !
b1000000000010011001000000000 #
b1000000000010011001000000000 %
b10001000000101000000 "
b10001000000101000000 $
#564
b111111110001011000100000000 '
b111111110001011000100000000 !
b1000000000010011001001000000 #
b1000000000010011001001000000 %
#568
b111111110001011000011000000 '
b111111110001011000011000000 !
b1000000000010011001000000000 #
b1000000000010011001000000000 %
#572
b111111110001011000100000000 '
b111111110001011000100000000 !
b1000000000010011001001000000 #
b1000000000010011001001000000 %
#576
b111111110010011000111000000 '
b111111110010011000111000000 !
b10001000000000010011001000000000 #
b10001000000000010011001000000000 %
b10000000000010000000000001000000 "
b10000000000010000000000001000000 $
#580
b111111110010011001000000000 '
b111111110010011001000000000 !
b10001000000000010011001001000000 #
b10001000000000010011001001000000 %
#584
b111111110010011000111000000 '
b111111110010011000111000000 !
b10001000000000010011001000000000 #
b10001000000000010011001000000000 %
#588
b111111110010011001000000000 '
b111111110010011001000000000 !
b10001000000000010011001001000000 #
b10001000000000010011001001000000 %
#592
b111111110010011000011000000 '
b111111110010011000011000000 !
b10001000000000010011001000000000 #
b10001000000000010011001000000000 %
b10000000000010000000000101000000 "
b10000000000010000000000101000000 $
#596
b111111110010011000100000000 '
b111111110010011000100000000 !
b10001000000000010011001001000000 #
b10001000000000010011001001000000 %
#600
b111111110010011000011000000 '
b111111110010011000011000000 !
b10001000000000010011001000000000 #
b10001000000000010011001000000000 %
#604
b111111110010011000100000000 '
b111111110010011000100000000 !
b10001000000000010011001001000000 #
b10001000000000010011001001000000 %
#608
b111111110001011000111000000 '
b111111110001011000111000000 !
b10001000000000010011001000000000 #
b10001000000000010011001000000000 %
b10000000000010001000000001000000 "
b10000000000010001000000001000000 $
#612
b111111110001011001000000000 '
b111111110001011001000000000 !
b10001000000000010011001001000000 #
b10001000000000010011001001000000 %
#616
b111111110001011000111000000 '
b111111110001011000111000000 !
b10001000000000010011001000000000 #
b10001000000000010011001000000000 %
#620
b111111110001011001000000000 '
b111111110001011001000000000 !
b10001000000000010011001001000000 #
b10001000000000010011001001000000 %
#624
b111111110001011000011000000 '
b111111110001011000011000000 !
b10001000000000010011001000000000 #
b10001000000000010011001000000000 %
b10000000000010001000000101000000 "
b10000000000010001000000101000000 $
#628
b111111110001011000100000000 '
b111111110001011000100000000 !
b10001000000000010011001001000000 #
b10001000000000010011001001000000 %
#632
b111111110001011000011000000 '
b111111110001011000011000000 !
b10001000000000010011001000000000 #
b10001000000000010011001000000000 %
#636
b111111110001011000100000000 '
b111111110001011000100000000 !
b10001000000000010011001001000000 #
b10001000000000010011001001000000 %
#640
b111111110010011000111000000 '
b111111110010011000111000000 !
b1000000000010011001000000000 #
b1000000000010011001000000000 %
b10000000000001000000 "
b10000000000001000000 $
#644
b111111110010011001000000000 '
b111111110010011001000000000 !
b1000000000010011001001000000 #
b1000000000010011001001000000 %
#648
b111111110010011000111000000 '
b111111110010011000111000000 !
b1000000000010011001000000000 #
b1000000000010011001000000000 %
#652
b111111110010011001000000000 '
b111111110010011001000000000 !
b1000000000010011001001000000 #
b1000000000010011001001000000 %
#656
b111111110010011000011000000 '
b111111110010011000011000000 !
b1000000000010011001000000000 #
b1000000000010011001000000000 %
b10000000000101000000 "
b10000000000101000000 $
#660
b111111110010011000100000000 '
b111111110010011000100000000 !
b1000000000010011001001000000 #
b1000000000010011001001000000 %
#664
b111111110010011000011000000 '
b111111110010011000011000000 !
b1000000000010011001000000000 #
b1000000000010011001000000000 %
#668
b111111110010011000100000000 '
b111111110010011000100000000 !
b1000000000010011001001000000 #
b1000000000010011001001000000 %
#672
b111111110001011000111000000 '
b111111110001011000111000000 !
b1000000000010011001000000000 #
b1000000000010011001000000000 %
b10001000000001000000 "
b10001000000001000000 $
#676
b111111110001011001000000000 '
b111111110001011001000000000 !
b1000000000010011001001000000 #
b1000000000010011001001000000 %
#680
b111111110001011000111000000 '
b111111110001011000111000000 !
b1000000000010011001000000000 #
b1000000000010011001000000000 %
#684
b111111110001011001000000000 '
b111111110001011001000000000 !
b1000000000010011001001000000 #
b1000000000010011001001000000 %
#688
b111111110001011000011000000 '
b111111110001011000011000000 !
b1000000000010011001000000000 #
b1000000000010011001000000000 %
b10001000000101000000 "
b10001000000101000000 $
#692
b111111110001011000100000000 '
b111111110001011000100000000 !
b1000000000010011001001000000 #
b1000000000010011001001000000 %
#696
b111111110001011000011000000 '
b111111110001011000011000000 !
b1000000000010011001000000000 #
b1000000000010011001000000000 %
#700
b111111110001011000100000000 '
b111111110001011000100000000 !
b1000000000010011001001000000 #
b1000000000010011001001000000 %
#704
b111111110010011000111000000 '
b111111110010011000111000000 !
b10001000000000010011001000000000 #
b10001000000000010011001000000000 %
b10000000000010000000000001000000 "
b10000000000010000000000001000000 $
#708
b111111110010011001000000000 '
b111111110010011001000000000 !
b10001000000000010011001001000000 #
b10001000000000010011001001000000 %
#712
b111111110010011000111000000 '
b111111110010011000111000000 !
b10001000000000010011001000000000 #
b10001000000000010011001000000000 %
#716
b111111110010011001000000000 '
b111111110010011001000000000 !
b10001000000000010011001001000000 #
b10001000000000010011001001000000 %
#720
b111111110010011000011000000 '
b111111110010011000011000000 !
b10001000000000010011001000000000 #
b10001000000000010011001000000000 %
b10000000000010000000000101000000 "
b10000000000010000000000101000000 $
#724
b111111110010011000100000000 '
b111111110010011000100000000 !
b10001000000000010011001001000000 #
b10001000000000010011001001000000 %
#728
b111111110010011000011000000 '
b111111110010011000011000000 !
b10001000000000010011001000000000 #
b10001000000000010011001000000000 %
#732
b111111110010011000100000000 '
b111111110010011000100000000 !
b10001000000000010011001001000000 #
b10001000000000010011001001000000 %
#736
b111111110001011000111000000 '
b111111110001011000111000000 !
b10001000000000010011001000000000 #
b10001000000000010011001000000000 %
b10000000000010001000000001000000 "
b10000000000010001000000001000000 $
#740
b111111110001011001000000000 '
b111111110001011001000000000 !
b10001000000000010011001001000000 #
b10001000000000010011001001000000 %
#744
b111111110001011000111000000 '
b111111110001011000111000000 !
b10001000000000010011001000000000 #
b10001000000000010011001000000000 %
#748
b111111110001011001000000000 '
b111111110001011001000000000 !
b10001000000000010011001001000000 #
b10001000000000010011001001000000 %
#752
b111111110001011000011000000 '
b111111110001011000011000000 !
b10001000000000010011001000000000 #
b10001000000000010011001000000000 %
b10000000000010001000000101000000 "
b10000000000010001000000101000000 $
#756
b111111110001011000100000000 '
b111111110001011000100000000 !
b10001000000000010011001001000000 #
b10001000000000010011001001000000 %
#760
b111111110001011000011000000 '
b111111110001011000011000000 !
b10001000000000010011001000000000 #
b10001000000000010011001000000000 %
#764
b111111110001011000100000000 '
b111111110001011000100000000 !
b10001000000000010011001001000000 #
b10001000000000010011001001000000 %
#768
b111111110010011000111000000 '
b111111110010011000111000000 !
b1000000000010011001000000000 #
b1000000000010011001000000000 %
b10000000000001000000 "
b10000000000001000000 $
#772
b111111110010011001000000000 '
b111111110010011001000000000 !
b1000000000010011001001000000 #
b1000000000010011001001000000 %
#776
b111111110010011000111000000 '
b111111110010011000111000000 !
b1000000000010011001000000000 #
b1000000000010011001000000000 %
#780
b111111110010011001000000000 '
b111111110010011001000000000 !
b1000000000010011001001000000 #
b1000000000010011001001000000 %
#784
b111111110010011000011000000 '
b111111110010011000011000000 !
b1000000000010011001000000000 #
b1000000000010011001000000000 %
b10000000000101000000 "
b10000000000101000000 $
#788
b111111110010011000100000000 '
b111111110010011000100000000 !
b1000000000010011001001000000 #
b1000000000010011001001000000 %
#792
b111111110010011000011000000 '
b111111110010011000011000000 !
b1000000000010011001000000000 #
b1000000000010011001000000000 %
#796
b111111110010011000100000000 '
b111111110010011000100000000 !
b1000000000010011001001000000 #
b1000000000010011001001000000 %
#800
b111111110001011000111000000 '
b111111110001011000111000000 !
b1000000000010011001000000000 #
b1000000000010011001000000000 %
b10001000000001000000 "
b10001000000001000000 $
#804
b111111110001011001000000000 '
b111111110001011001000000000 !
b1000000000010011001001000000 #
b1000000000010011001001000000 %
#808
b111111110001011000111000000 '
b111111110001011000111000000 !
b1000000000010011001000000000 #
b1000000000010011001000000000 %
#812
b111111110001011001000000000 '
b111111110001011001000000000 !
b1000000000010011001001000000 #
b1000000000010011001001000000 %
#816
b111111110001011000011000000 '
b111111110001011000011000000 !
b1000000000010011001000000000 #
b1000000000010011001000000000 %
b10001000000101000000 "
b10001000000101000000 $
#820
b111111110001011000100000000 '
b111111110001011000100000000 !
b1000000000010011001001000000 #
b1000000000010011001001000000 %
#824
b111111110001011000011000000 '
b111111110001011000011000000 !
b1000000000010011001000000000 #
b1000000000010011001000000000 %
#828
b111111110001011000100000000 '
b111111110001011000100000000 !
b1000000000010011001001000000 #
b1000000000010011001001000000 %
#832
b111111110010011000111000000 '
b111111110010011000111000000 !
b10001000000000010011001000000000 #
b10001000000000010011001000000000 %
b10000000000010000000000001000000 "
b10000000000010000000000001000000 $
#836
b111111110010011001000000000 '
b111111110010011001000000000 !
b10001000000000010011001001000000 #
b10001000000000010011001001000000 %
#840
b111111110010011000111000000 '
b111111110010011000111000000 !
b10001000000000010011001000000000 #
b10001000000000010011001000000000 %
#844
b111111110010011001000000000 '
b111111110010011001000000000 !
b10001000000000010011001001000000 #
b10001000000000010011001001000000 %
#848
b111111110010011000011000000 '
b111111110010011000011000000 !
b10001000000000010011001000000000 #
b10001000000000010011001000000000 %
b10000000000010000000000101000000 "
b10000000000010000000000101000000 $
#852
b111111110010011000100000000 '
b111111110010011000100000000 !
b10001000000000010011001001000000 #
b10001000000000010011001001000000 %
#856
b111111110010011000011000000 '
b111111110010011000011000000 !
b10001000000000010011001000000000 #
b10001000000000010011001000000000 %
#860
b111111110010011000100000000 '
b111111110010011000100000000 !
b10001000000000010011001001000000 #
b10001000000000010011001001000000 %
#864
b111111110001011000111000000 '
b111111110001011000111000000 !
b10001000000000010011001000000000 #
b10001000000000010011001000000000 %
b10000000000010001000000001000000 "
b10000000000010001000000001000000 $
#868
b111111110001011001000000000 '
b111111110001011001000000000 !
b10001000000000010011001001000000 #
b10001000000000010011001001000000 %
#872
b111111110001011000111000000 '
b111111110001011000111000000 !
b10001000000000010011001000000000 #
b10001000000000010011001000000000 %
#876
b111111110001011001000000000 '
b111111110001011001000000000 !
b10001000000000010011001001000000 #
b10001000000000010011001001000000 %
#880
b111111110001011000011000000 '
b111111110001011000011000000 !
b10001000000000010011001000000000 #
b10001000000000010011001000000000 %
b10000000000010001000000101000000 "
b10000000000010001000000101000000 $
#884
b111111110001011000100000000 '
b111111110001011000100000000 !
b10001000000000010011001001000000 #
b10001000000000010011001001000000 %
#888
b111111110001011000011000000 '
b111111110001011000011000000 !
b10001000000000010011001000000000 #
b10001000000000010011001000000000 %
#892
b111111110001011000100000000 '
b111111110001011000100000000 !
b10001000000000010011001001000000 #
b10001000000000010011001001000000 %
#896
b111111110010011000111000000 '
b111111110010011000111000000 !
b1000000000010011001000000000 #
b1000000000010011001000000000 %
b10000000000001000000 "
b10000000000001000000 $
#900
b111111110010011001000000000 '
b111111110010011001000000000 !
b1000000000010011001001000000 #
b1000000000010011001001000000 %
#904
b111111110010011000111000000 '
b111111110010011000111000000 !
b1000000000010011001000000000 #
b1000000000010011001000000000 %
#908
b111111110010011001000000000 '
b111111110010011001000000000 !
b1000000000010011001001000000 #
b1000000000010011001001000000 %
#912
b111111110010011000011000000 '
b111111110010011000011000000 !
b1000000000010011001000000000 #
b1000000000010011001000000000 %
b10000000000101000000 "
b10000000000101000000 $
